{
  "images" : [
    {
      "idiom" : "universal",
      "scale" : "1x",
      "filename" : "blog.png"
    },
    {
      "idiom" : "universal",
      "scale" : "2x",
      "filename" : "blog@2x.png"
    },
    {
      "idiom" : "universal",
      "scale" : "3x"
    }
  ],
  "info" : {
    "version" : 1,
    "author" : "xcode",
    "template-rendering-intent" : "template"
  }
}